[gd_scene load_steps=3 format=2]

[ext_resource path="res://Assets/playerShip1_blue.png" type="Texture" id=1]

[sub_resource type="RectangleShape2D" id=1]
extents = Vector2( 50.0055, 38.7128 )

[node name="BlueShip" type="RigidBody2D"]
mass = 5.04388

[node name="Sprite" type="Sprite" parent="."]
texture = ExtResource( 1 )

[node name="CollisionShape2D" type="CollisionShape2D" parent="."]
shape = SubResource( 1 )
